{"fields":{"code":"B004","graphs":[{"name":"tracing-subscriber","parents":[{"name":"tracing-error","parents":[{"name":"color-eyre","parents":[{"name":"cargo-sonar","version":"0.8.1"}],"version":"0.5.11"},{"name":"color-spantrace","parents":[{"name":"color-eyre","repeat":true,"version":"0.5.11"}],"version":"0.1.6"}],"version":"0.1.2"}],"version":"0.2.25"},{"name":"tracing-subscriber","parents":[{"name":"cargo-sonar","version":"0.8.1"}],"version":"0.3.2"}],"labels":[{"column":1,"line":93,"message":"lock entries","span":"tracing-subscriber 0.2.25 registry+https://github.com/rust-lang/crates.io-index\ntracing-subscriber 0.3.2 registry+https://github.com/rust-lang/crates.io-index"}],"message":"found 2 duplicate entries for crate 'tracing-subscriber'","severity":"warning"},"type":"diagnostic"}
{"fields":{"code":"L002","graphs":[{"name":"smartstring","parents":[{"name":"crates-index","parents":[{"name":"rustsec","parents":[{"name":"cargo-sonar","version":"0.8.1"}],"version":"0.25.1"}],"version":"0.17.0"}],"version":"0.2.9"}],"labels":[{"column":12,"line":4,"message":"license expression retrieved via Cargo.toml `license`","span":"MPL-2.0+"},{"column":12,"line":4,"message":"accepted: license is considered copyleft","span":"MPL-2.0"}],"message":"license requirements satisfied","severity":"warning"},"type":"diagnostic"}
{"fields":{"advisories":{"errors":0,"helps":0,"notes":0,"warnings":0},"bans":{"errors":0,"helps":0,"notes":0,"warnings":1},"licenses":{"errors":0,"helps":106,"notes":0,"warnings":1},"sources":{"errors":0,"helps":0,"notes":0,"warnings":0}},"type":"summary"}
